
<svg xmlns="http://www.w3.org/2000/svg" viewBox="0 0 100 100">
  <defs>
    <style>
      .cls-1, .cls-3 {
        fill: none;
      }
      .cls-1 {
        stroke: #d3d3d3;
        stroke-width: 3px;
      }
      .cls-2 {
        stroke: none;
      }
    </style>
  </defs>
  <g id="1" data-name="1" class="cls-1">
    <circle class="cls-3" cx="50" cy="50" r="43"/>
  </g>
</svg>
