<?xml version="1.0" standalone="no"?>
<!DOCTYPE svg PUBLIC "-//W3C//DTD SVG 20010904//EN"
 "http://www.w3.org/TR/2001/REC-SVG-20010904/DTD/svg10.dtd">
<svg version="1.0" xmlns="http://www.w3.org/2000/svg"
 width="520.000000pt" height="520.000000pt" viewBox="0 0 520.000000 520.000000"
 preserveAspectRatio="xMidYMid meet">
<metadata>
Created by potrace 1.11, written by Peter Selinger 2001-2013
</metadata>
<g transform="translate(0.000000,520.000000) scale(0.100000,-0.100000)"
fill="#000000" stroke="none">
<path d="M2480 5104 c-541 -37 -985 -202 -1415 -527 -101 -77 -317 -287 -402
-392 -168 -207 -334 -499 -421 -740 -51 -139 -107 -365 -129 -520 -26 -180
-23 -516 5 -700 58 -372 189 -713 391 -1016 120 -180 195 -271 347 -420 406
-396 896 -629 1469 -700 129 -16 441 -16 570 0 473 58 873 221 1260 514 101
77 317 287 402 392 168 207 334 499 421 740 51 139 107 365 129 520 26 180 23
516 -5 700 -58 372 -189 713 -391 1016 -120 180 -195 271 -347 420 -405 394
-909 635 -1464 698 -100 12 -341 20 -420 15z m398 -45 c445 -49 882 -222 1232
-489 306 -234 547 -524 719 -866 56 -110 111 -240 111 -260 0 -23 -178 -200
-255 -253 -99 -69 -222 -126 -331 -153 -74 -19 -116 -23 -254 -23 -145 0 -174
3 -240 23 -105 33 -230 100 -330 177 -47 36 -123 94 -170 130 -239 184 -454
207 -587 62 -114 -123 -167 -334 -183 -727 -8 -216 -18 -266 -67 -365 -56
-111 -135 -171 -236 -182 -44 -4 -62 -1 -105 21 -102 52 -188 154 -447 531
-259 378 -404 552 -549 662 -133 100 -317 161 -516 170 -139 6 -233 -11 -332
-60 -38 -18 -68 -32 -68 -30 0 13 72 179 115 266 258 516 679 923 1200 1160
218 99 508 179 745 206 110 12 436 13 548 0z m163 -2034 c99 -51 186 -155 444
-530 259 -378 404 -552 549 -662 133 -100 317 -161 516 -170 139 -6 233 11
333 60 37 18 67 32 67 30 0 -13 -72 -179 -115 -266 -381 -763 -1112 -1274
-1957 -1366 -125 -14 -411 -14 -536 0 -445 49 -882 222 -1232 489 -306 234
-547 524 -719 866 -56 110 -111 240 -111 260 0 23 178 200 255 253 99 69 222
126 331 153 74 19 116 23 254 23 145 0 174 -3 240 -23 105 -33 230 -100 330
-177 47 -36 123 -94 170 -130 239 -184 454 -207 587 -62 114 123 167 334 183
727 8 216 18 267 68 365 48 97 95 140 181 171 56 20 107 17 162 -11z"/>
</g>
</svg>
